{
  "time": {
    "updated": "Jun 6, 2017 01:14:00 UTC",
    "updatedISO": "2017-06-06T01:14:00+00:00",
    "updateduk": "Jun 6, 2017 at 02:14 BST"
  },
  "disclaimer": "This data was produced from the CoinDesk Bitcoin Price Index (USD). Non-USD currency data converted using hourly conversion rate from openexchangerates.org",
  "chartName": "Bitcoin",
  "bpi": {
    "USD": {
      "code": "USD",
      "symbol": "$",
      "rate": "2,758.2538",
      "description": "United States Dollar",
      "rate_float": 2758.2538
    },
    "GBP": {
      "code": "GBP",
      "symbol": "\u00a3",
      "rate": "2,135.7104",
      "description": "British Pound Sterling",
      "rate_float": 2135.7104
    },
    "EUR": {
      "code": "EUR",
      "symbol": "\u20ac",
      "rate": "2,449.0811",
      "description": "Euro",
      "rate_float": 2449.0811
    }
  }
}