{
        "_id" : ObjectId("5928e808956b972de279892b"),
        "contributors" : null,
        "truncated" : false,
        "text" : "Claim Your 50PHP Reward | Buy &amp; Sell Bitcoin in the Philippines https://t.co/sH0FMVBRIO",
        "is_quote_status" : false,
        "in_reply_to_status_id" : null,
        "id" : NumberLong("868296801828429825"),
        "favorite_count" : 0,
        "source" : "<a href=\"http://www.facebook.com/twitter\" rel=\"nofollow\">Facebook</a>",
        "retweeted" : false,
        "coordinates" : null,
        "timestamp_ms" : "1495853064387",
        "entities" : {
                "user_mentions" : [ ],
                "symbols" : [ ],
                "hashtags" : [ ],
                "urls" : [
                        {
                                "url" : "https://t.co/sH0FMVBRIO",
                                "indices" : [
                                        68,
                                        91
                                ],
                                "expanded_url" : "http://fb.me/2WT4hmRsk",
                                "display_url" : "fb.me/2WT4hmRsk"
                        }
                ]
        },
        "in_reply_to_screen_name" : null,
        "id_str" : "868296801828429825",
        "retweet_count" : 0,
        "in_reply_to_user_id" : null,
        "favorited" : false,
        "user" : {
                "follow_request_sent" : null,
                "profile_use_background_image" : true,
                "default_profile_image" : false,
                "id" : 1624278668,
                "verified" : false,
                "profile_image_url_https" : "https://pbs.twimg.com/profile_images/378800000765803684/2ff4eaf3245ed56831c23305242d75fa_normal.jpeg",
                "profile_sidebar_fill_color" : "DDEEF6",
                "profile_text_color" : "333333",
                "followers_count" : 24,
                "profile_sidebar_border_color" : "FFFFFF",
                "id_str" : "1624278668",
                "profile_background_color" : "65308A",
                "listed_count" : 0,
                "profile_background_image_url_https" : "https://abs.twimg.com/images/themes/theme10/bg.gif",
                "utc_offset" : -25200,
                "statuses_count" : 80,
                "description" : null,
                "friends_count" : 76,
                "location" : null,
                "profile_link_color" : "C800FF",
                "profile_image_url" : "http://pbs.twimg.com/profile_images/378800000765803684/2ff4eaf3245ed56831c23305242d75fa_normal.jpeg",
                "following" : null,
                "geo_enabled" : false,
                "profile_banner_url" : "https://pbs.twimg.com/profile_banners/1624278668/1384954926",
                "profile_background_image_url" : "http://abs.twimg.com/images/themes/theme10/bg.gif",
                "name" : "marbelyn shaidel",
                "lang" : "en-gb",
                "profile_background_tile" : true,
                "favourites_count" : 0,
                "screen_name" : "MShaidel",
                "notifications" : null,
                "url" : null,
                "created_at" : "Sat Jul 27 01:25:25 +0000 2013",
                "contributors_enabled" : false,
                "time_zone" : "Pacific Time (US & Canada)",
                "protected" : false,
                "default_profile" : false,
                "is_translator" : false
        },
        "geo" : null,
        "in_reply_to_user_id_str" : null,
        "possibly_sensitive" : false,
        "lang" : "en",
        "created_at" : "Sat May 27 02:44:24 +0000 2017",
        "filter_level" : "low",
        "in_reply_to_status_id_str" : null,
        "place" : null
}